[gd_resource type="Theme" load_steps=3 format=2]

[ext_resource path="res://assets/yoster.ttf" type="DynamicFontData" id=1]

[sub_resource type="DynamicFont" id=1]
size = 26
outline_size = 5
outline_color = Color( 0.501961, 0.12549, 0.12549, 1 )
font_data = ExtResource( 1 )

[resource]
default_font = SubResource( 1 )
